id,name,description,created_at,updated_at,location_1,location_2,eligibility_1,eligibility_2,eligibility_3,eligibility_4,eligibility_5,eligibility_6,eligibility_7
1,First Presbyterian Church of Brooklyn,"Congregation of different races, ethnicities, nationalities, ages, sexual orientations, marital statuses, professions, incomes and abilities that reflect and honor that diversity.",2017-06-24 17:26:28 UTC,2017-06-24 17:26:28 UTC,"124 Henry Street, Brooklyn, NY 11201",,Seniors,Refugees,Veterans,,,,
2,First Unitarian Church in Brooklyn Gay-Straight Alliance,Inclusion/expressions/advocacy of LGBT concerns in congregational life and society.,2017-06-24 17:26:28 UTC,2017-06-24 17:26:28 UTC,"50 Monroe Place, Brooklyn, NY 11201","1201 Broadway, New York, NY 10001",Youth,Seniors,Ex-Offenders,Veterans,,,
3,Broadway United Church of Christ,"LGBT-affirming congregation of United Church of Christ, 5pm Sunday worship service, followed by dinner. All welcome.",2017-06-24 17:26:28 UTC,2017-06-24 17:26:28 UTC,"124 Goss Street, New York, NY 10001",,Youth,Ex-Offenders,Refugees,Children,Abuse Survivors,,
4,Callen-Lorde Community Health Center,"Services targeted at New York’s LGBT communities, including: case management, primary medical care, HIV testing, health, Health Outreach to Teens (HOTT) program ages: 13-24. Free sexual and reproductive health services including: condoms, birth control, emergency contraception, STD testing and treatment, HIV testing, pregnancy testing, and mental health counseling.",2017-06-24 17:26:28 UTC,2017-06-24 17:26:28 UTC,"356 W. 18th St., 2nd floor, New York, NY 10011",,Youth,Ex-Offenders,Refugees,Veterans,Children,,
5,Congregation Beit Simchat Torah,Synagogue serving LGBTQ community of NYC since 1973. Has an active Trans Empowerment Committee.,2017-06-24 17:26:28 UTC,2017-06-24 17:26:28 UTC,"57 Bethune St., New York, NY 10014",,Children,,,,,,
6,Greenwich Village Youth Council's Neutral Zone,"Safe space for LGBTQ youth to drop in and hang out, socialize, enjoy activities. Also homeless or at-risk services.
",2017-06-24 17:26:28 UTC,2017-06-24 17:26:28 UTC,"2273 Third Avenue, New York, NY 10035",,Youth,Seniors,Ex-Offenders,Refugees,Veterans,Children,Abuse Survivors
7,HIV Law Project,"Services for HIV+ Bronx and Manhattan residents, including: housing, immigration, benefits, and healthcare. Bilingual English/Spanish.",2017-06-24 17:26:28 UTC,2017-06-24 17:26:28 UTC,"15 Maiden Lane, 18th floor, New York, NY 10038",,Youth,Seniors,Ex-Offenders,Refugees,Veterans,Children,Abuse Survivors
8,Jan Hus Presbyterian Church,LGBT-affirming congregation and homeless outreach program.,2017-06-24 17:26:28 UTC,2017-06-24 17:26:28 UTC,"351 East 74th street, New York, NY 10021",,Youth,Refugees,Veterans,Children,Abuse Survivors,,
9,Lawyers for Children,The LGBTQ Youth Project specializes in referrals and legal representation for LGBTQ young people in foster care.,2017-06-24 17:26:28 UTC,2017-06-24 17:26:28 UTC,"110 Lafayette Street, New York, NY 10013",,Ex-Offenders,Refugees,,,,,
10,Lennox Avenue Health Center,"Services for females only. Low cost sexual and reproductive health services including: condoms, birth control, emergency contraception, STD testing and treatment, HIV testing, and pregnancy testing",2017-06-24 17:26:28 UTC,2017-06-24 17:26:28 UTC,"115 West 116th Street, New York, NY 10026",,Youth,Seniors,Ex-Offenders,Children,Abuse Survivors,,
11,LGBT Law Association of Greater New York,"Services include: a resource center, lawyer assistance program, LGBT life planning, legal walk-in clinics on Long Island and in Manhattan, the West Village Trans-Legal Clinic",2017-06-24 17:26:28 UTC,2017-06-24 17:26:28 UTC,"799 Broadway, #340, New York, NY 10003",,Youth,Seniors,Ex-Offenders,Refugees,Veterans,Children,Abuse Survivors
12,New Alternatives,"Services for LGBT homeless youth ages 16-24, including: case management, life skills workshops, community building, educational and discussion groups, support groups, hot meals, food pantry, clothing, and toiletries. Walk-in Sundays 6-8 pm and Tuesdays 5-9 pm.",2017-06-24 17:26:28 UTC,2017-06-24 17:26:28 UTC,"83 Christopher Street, New York, NY 10014",,Seniors,Abuse Survivors,,,,,
13,Project SOL (Speak Out Loud),"Project SOL is specifically designed for L.G.B.T.Q. youth, young adults and their allies based in the Lower East Side.",2017-06-24 17:26:28 UTC,2017-06-24 17:26:28 UTC,"80 Pitt Street Community Center, New York, NY 10002",,Youth,Seniors,Abuse Survivors,,,,
14,Seventh Day Adventist Kinship - NY Chapter,Lesbian and gay religious support group for present and former Seventh Day Adventists and friends.,2017-06-24 17:26:28 UTC,2017-06-24 17:26:28 UTC,"95 W 95th St, #21F, New York, NY 10025","95 W 110th St, New York, NY 10025",Youth,Seniors,Veterans,Children,,,
15,Trinity Place,"Services for young adults ages 18- 24, including: a 10 bed transitional shelter, case management, money for transportation, food, etc. and partner with other organizations that offer medical and mental health services.",2017-06-24 17:26:28 UTC,2017-06-24 17:26:28 UTC,"164 W. 100th St., New York, NY 10025",,Refugees,,,,,,
16,The Neuroscience Institute,"Non-profit outpatient neurological clinic offeringadults (19+) diagnosis and treatment for neurological disorders, including developmental disabilities, epilepsy, stroke, multiple sclerosis, memory disorders, neuro-oncology, autonomic disorders, and sleep disorders.",2017-06-24 17:26:28 UTC,2017-06-24 17:26:28 UTC,"59-16 174th Street, Fresh Meadows, NY 11365",,Veterans,Children,Abuse Survivors,,,,
17,Family PEACE Program,Public program providing women and their children (ages 0-13) who have experienced domestic violence in their home with bilingual (English/Spanish) mental health services.,2017-06-24 17:26:28 UTC,2017-06-24 17:26:28 UTC,"534 West 135th Street, New York, NY 10031",,Seniors,,,,,,
18,South Bronx Job Corps Academy,Public program offeringindividuals ages 16-24 free job training and job placement in either a residential or commuter setting.,2017-06-24 17:26:28 UTC,2017-06-24 17:26:28 UTC,"1771 Andrews Avenue, Bronx, NY 10453",,Ex-Offenders,Veterans,Children,Abuse Survivors,,,
19,Queens Adult Learning Center (QALC),"Public learning center providing individuals ages 21+ with free education courses, including basic education, GED, ESL, and computer applications classes.",2017-06-24 17:26:28 UTC,2017-06-24 17:26:28 UTC,"27-35 Jackson Avenue, 3rd Floor, Long Island City, NY 11101",,Veterans,Children,,,,,
20,Brooklyn Adult Learning Center (BALC),"Public center offering individuals ages 21+ free day, evening, and Saturday courses, including basic education, TASC, ESL, computer literacy classes, A+ electronic, computer repair, technical education, licensed practical nursing, and certified nursing assistant programs,career education and medical billing and coding.",2017-06-24 17:26:28 UTC,2017-06-24 17:26:28 UTC,"475 Nostrand Avenue, Brooklyn, NY 11216",,Youth,Seniors,Ex-Offenders,Refugees,Veterans,Children,Abuse Survivors
